{
    "content": [
      {
        "id": "ce379ffe-4391-41a0-9cc1-8a768530dfa1",
        "providerAssignedId": "30083",
        "name": null,
        "garageName": "30083 (8300 Pijlsweerd)",
        "zoneNumber": null,
        "countryCode": "NL",
        "isIndoor": false,
        "isOutdoor": true,
        "wheelChairAccessible": true,
        "latitude": 52.097416,
        "longitude": 5.1094,
        "distanceInKm": 0.8123124116537709,
        "streetAddress": null,
        "postalCode": null,
        "active": true,
        "suspended": false,
        "capacity": null,
        "currentRate": 1.8479,
        "currentRateUnit": "h",
        "availableSpaces": -1,
        "supportInfo": {
          "providerName": "SHPV",
          "phoneNumber": "1234567890"
        },
        "areaId": "8300"
      },
      {
        "id": "3de9fce1-9207-4ef2-b515-f55d7108cbab",
        "providerAssignedId": "30021",
        "name": null,
        "garageName": "30021 (2100 Nieuwegracht)",
        "zoneNumber": null,
        "countryCode": "NL",
        "isIndoor": false,
        "isOutdoor": true,
        "wheelChairAccessible": true,
        "latitude": 52.086519,
        "longitude": 5.125364,
        "distanceInKm": 0.8187385554809112,
        "streetAddress": null,
        "postalCode": null,
        "active": true,
        "suspended": false,
        "capacity": null,
        "currentRate": 3.5054,
        "currentRateUnit": "h",
        "availableSpaces": -1,
        "supportInfo": {
          "providerName": "SHPV",
          "phoneNumber": "1234567890"
        },
        "areaId": "2100"
      },
      {
        "id": "afc1d772-d799-4e11-9b28-58fe0ce0dede",
        "providerAssignedId": "812003",
        "name": "Kruisstraat",
        "garageName": "Kruisstraat (KRUISSTR Kruisstraat)",
        "zoneNumber": null,
        "countryCode": "NL",
        "isIndoor": false,
        "isOutdoor": true,
        "wheelChairAccessible": true,
        "latitude": 52.093808,
        "longitude": 5.129441,
        "distanceInKm": 0.8276284067410331,
        "streetAddress": null,
        "postalCode": null,
        "active": true,
        "suspended": false,
        "capacity": null,
        "currentRate": 2.363,
        "currentRateUnit": "h",
        "availableSpaces": -1,
        "supportInfo": {
          "providerName": "SHPV",
          "phoneNumber": "1234567890"
        },
        "areaId": "KRUISSTR"
      },
      {
        "id": "6b6b90e3-9465-41da-8f88-151c0ca92edf",
        "providerAssignedId": "30081",
        "name": null,
        "garageName": "30081 (8100 Vogelenbuurt)",
        "zoneNumber": null,
        "countryCode": "NL",
        "isIndoor": false,
        "isOutdoor": true,
        "wheelChairAccessible": true,
        "latitude": 52.099852,
        "longitude": 5.118593,
        "distanceInKm": 0.8595142467014282,
        "streetAddress": null,
        "postalCode": null,
        "active": true,
        "suspended": false,
        "capacity": null,
        "currentRate": 1.8479,
        "currentRateUnit": "h",
        "availableSpaces": -1,
        "supportInfo": {
          "providerName": "SHPV",
          "phoneNumber": "1234567890"
        },
        "areaId": "8100"
      },
      {
        "id": "a19ddddf-1822-4360-827e-dafd14ad3a90",
        "providerAssignedId": "812004",
        "name": "Grifthoek",
        "garageName": "Grifthoek (GRIFTHOEK Grifthoek)",
        "zoneNumber": null,
        "countryCode": "NL",
        "isIndoor": false,
        "isOutdoor": true,
        "wheelChairAccessible": true,
        "latitude": 52.098067,
        "longitude": 5.126273,
        "distanceInKm": 0.884332610065642,
        "streetAddress": null,
        "postalCode": null,
        "active": true,
        "suspended": false,
        "capacity": null,
        "currentRate": 1.214,
        "currentRateUnit": "h",
        "availableSpaces": -1,
        "supportInfo": {
          "providerName": "SHPV",
          "phoneNumber": "1234567890"
        },
        "areaId": "GRIFTHOEK"
      },
      {
        "id": "73b4e0df-b065-4d93-b127-070bc9dab294",
        "providerAssignedId": "812001",
        "name": "Croeselaan",
        "garageName": "Croeselaan (CROESELAAN Croeselaan)",
        "zoneNumber": null,
        "countryCode": "NL",
        "isIndoor": false,
        "isOutdoor": true,
        "wheelChairAccessible": true,
        "latitude": 52.087255,
        "longitude": 5.106741,
        "distanceInKm": 0.9216064963983817,
        "streetAddress": null,
        "postalCode": null,
        "active": true,
        "suspended": false,
        "capacity": null,
        "currentRate": 2.5653,
        "currentRateUnit": "h",
        "availableSpaces": -1,
        "supportInfo": {
          "providerName": "SHPV",
          "phoneNumber": "1234567890"
        },
        "areaId": "CROESELAAN"
      },
      {
        "id": "23288f60-09ec-4c4c-853c-6ebf532ec547",
        "providerAssignedId": "23288f60-09ec-4c4c-853c-6ebf532ec547",
        "name": "Stroomstraat",
        "garageName": "ParkBee(26933): Stroomstraat",
        "zoneNumber": 26933,
        "countryCode": "NL",
        "isIndoor": false,
        "isOutdoor": true,
        "wheelChairAccessible": true,
        "latitude": 52.098708,
        "longitude": 5.109142,
        "distanceInKm": 0.932217428705308,
        "streetAddress": "Stroomstraat 10",
        "postalCode": "3513 EX   ",
        "active": true,
        "suspended": false,
        "capacity": 50,
        "currentRate": 1.5,
        "currentRateUnit": "h",
        "availableSpaces": 49,
        "supportInfo": {
          "providerName": "ParkBee",
          "phoneNumber": "1234567890"
        },
        "areaId": null
      },
      {
        "id": "bbb26ef5-6cd7-4418-8462-c4cad97d4045",
        "providerAssignedId": "812002",
        "name": "Kop van Lombok",
        "garageName": "Kop van Lombok (KVL Kop van Lombok)",
        "zoneNumber": null,
        "countryCode": "NL",
        "isIndoor": false,
        "isOutdoor": true,
        "wheelChairAccessible": true,
        "latitude": 52.092415,
        "longitude": 5.103828,
        "distanceInKm": 0.9435754573681727,
        "streetAddress": null,
        "postalCode": null,
        "active": true,
        "suspended": false,
        "capacity": null,
        "currentRate": 1.516,
        "currentRateUnit": "h",
        "availableSpaces": -1,
        "supportInfo": {
          "providerName": "SHPV",
          "phoneNumber": "1234567890"
        },
        "areaId": "KVL"
      }
    ],
    "pageable": {
      "sort": {
        "sorted": false,
        "unsorted": true,
        "empty": true
      },
      "pageNumber": 1,
      "pageSize": 10,
      "offset": 10,
      "paged": true,
      "unpaged": false
    },
    "totalElements": 20,
    "totalPages": 2,
    "last": true,
    "first": false,
    "numberOfElements": 8,
    "sort": {
      "sorted": false,
      "unsorted": true,
      "empty": true
    },
    "size": 10,
    "number": 1,
    "empty": false
  }